digraph "Analyseur"
{
  edge [fontname="Helvetica",fontsize="10",labelfontname="Helvetica",labelfontsize="10"];
  node [fontname="Helvetica",fontsize="10",shape=record];
  Node1 [label="Analyseur",height=0.2,width=0.4,color="black", fillcolor="grey75", style="filled", fontcolor="black"];
  Node2 -> Node1 [dir="back",color="darkorchid3",fontsize="10",style="dashed",label=" datas" ,fontname="Helvetica"];
  Node2 [label="Analyseur::metaData",height=0.2,width=0.4,color="black", fillcolor="white", style="filled",URL="$structAnalyseur_1_1metaData.html",tooltip="Structure MetaData. "];
}
